simulation/qsim/clk.msim.vcd
$comment
	File created using the following command:
		vcd file clk.msim.vcd -direction
$end
$date
	Mon Jan 23 17:42:18 2023
$end
$version
	ModelSim Version 10.1d
$end
$timescale
	1ps
$end
$scope module clk_vlg_vec_tst $end
$var reg 1 ! pin_name1 $end
$var wire 1 " a $end
$var wire 1 # a0 $end
$var wire 1 $ a1 $end
$var wire 1 % b $end
$var wire 1 & b0 $end
$var wire 1 ' b1 $end
$var wire 1 ( c $end
$var wire 1 ) c0 $end
$var wire 1 * c7 $end
$var wire 1 + d $end
$var wire 1 , d0 $end
$var wire 1 - d1 $end
$var wire 1 . e $end
$var wire 1 / e0 $end
$var wire 1 0 e1 $end
$var wire 1 1 f $end
$var wire 1 2 f0 $end
$var wire 1 3 f1 $end
$var wire 1 4 g $end
$var wire 1 5 g0 $end
$var wire 1 6 g1 $end
$var wire 1 7 sampler $end
$scope module i1 $end
$var wire 1 8 gnd $end
$var wire 1 9 vcc $end
$var wire 1 : unknown $end
$var tri1 1 ; devclrn $end
$var tri1 1 < devpor $end
$var tri1 1 = devoe $end
$var wire 1 > c7~output_o $end
$var wire 1 ? a1~output_o $end
$var wire 1 @ b1~output_o $end
$var wire 1 A d1~output_o $end
$var wire 1 B e1~output_o $end
$var wire 1 C f1~output_o $end
$var wire 1 D g1~output_o $end
$var wire 1 E a0~output_o $end
$var wire 1 F b0~output_o $end
$var wire 1 G c0~output_o $end
$var wire 1 H d0~output_o $end
$var wire 1 I e0~output_o $end
$var wire 1 J f0~output_o $end
$var wire 1 K g0~output_o $end
$var wire 1 L a~output_o $end
$var wire 1 M b~output_o $end
$var wire 1 N c~output_o $end
$var wire 1 O d~output_o $end
$var wire 1 P e~output_o $end
$var wire 1 Q f~output_o $end
$var wire 1 R g~output_o $end
$var wire 1 S pin_name1~input_o $end
$var wire 1 T inst13|synthesized_var_for_JKFF_inst~0_combout $end
$var wire 1 U inst13|synthesized_var_for_JKFF_inst~feeder_combout $end
$var wire 1 V inst13|synthesized_var_for_JKFF_inst~q $end
$var wire 1 W inst13|synthesized_var_for_SYNTHESIZED_WIRE_24~0_combout $end
$var wire 1 X inst13|synthesized_var_for_SYNTHESIZED_WIRE_24~q $end
$var wire 1 Y inst13|synthesized_var_for_JKFF_inst2~0_combout $end
$var wire 1 Z inst13|synthesized_var_for_JKFF_inst2~feeder_combout $end
$var wire 1 [ inst13|synthesized_var_for_JKFF_inst2~q $end
$var wire 1 \ inst13|synthesized_var_for_JKFF_inst10~0_combout $end
$var wire 1 ] inst13|synthesized_var_for_JKFF_inst10~q $end
$var wire 1 ^ inst13|SYNTHESIZED_WIRE_21~0_combout $end
$var wire 1 _ inst|synthesized_var_for_JKFF_inst~0_combout $end
$var wire 1 ` inst|synthesized_var_for_JKFF_inst~feeder_combout $end
$var wire 1 a inst|SYNTHESIZED_WIRE_21~0_combout $end
$var wire 1 b inst|synthesized_var_for_JKFF_inst~q $end
$var wire 1 c inst|synthesized_var_for_SYNTHESIZED_WIRE_23~0_combout $end
$var wire 1 d inst|synthesized_var_for_SYNTHESIZED_WIRE_23~q $end
$var wire 1 e inst|synthesized_var_for_SYNTHESIZED_WIRE_24~0_combout $end
$var wire 1 f inst|synthesized_var_for_SYNTHESIZED_WIRE_24~feeder_combout $end
$var wire 1 g inst|synthesized_var_for_SYNTHESIZED_WIRE_24~q $end
$var wire 1 h inst|synthesized_var_for_Q3~0_combout $end
$var wire 1 i inst|synthesized_var_for_Q3~q $end
$var wire 1 j inst4|SYNTHESIZED_WIRE_37~0_combout $end
$var wire 1 k inst4|SYNTHESIZED_WIRE_18~0_combout $end
$var wire 1 l inst4|SYNTHESIZED_WIRE_30~0_combout $end
$var wire 1 m inst4|SYNTHESIZED_WIRE_38~0_combout $end
$var wire 1 n inst4|SYNTHESIZED_WIRE_39~0_combout $end
$var wire 1 o inst4|SYNTHESIZED_WIRE_40~0_combout $end
$var wire 1 p inst4|SYNTHESIZED_WIRE_41~0_combout $end
$var wire 1 q inst3|SYNTHESIZED_WIRE_18~0_combout $end
$var wire 1 r inst3|SYNTHESIZED_WIRE_30~0_combout $end
$var wire 1 s inst3|SYNTHESIZED_WIRE_37~0_combout $end
$var wire 1 t inst3|SYNTHESIZED_WIRE_38~0_combout $end
$var wire 1 u inst3|SYNTHESIZED_WIRE_39~0_combout $end
$var wire 1 v inst3|SYNTHESIZED_WIRE_40~0_combout $end
$var wire 1 w inst3|SYNTHESIZED_WIRE_41~0_combout $end
$var wire 1 x inst15|synthesized_var_for_JKFF_inst~0_combout $end
$var wire 1 y inst15|synthesized_var_for_JKFF_inst~feeder_combout $end
$var wire 1 z inst15|synthesized_var_for_JKFF_inst10~0_combout $end
$var wire 1 { inst15|synthesized_var_for_JKFF_inst10~q $end
$var wire 1 | inst15|SYNTHESIZED_WIRE_21~0_combout $end
$var wire 1 } inst15|synthesized_var_for_JKFF_inst~q $end
$var wire 1 ~ inst15|synthesized_var_for_SYNTHESIZED_WIRE_24~0_combout $end
$var wire 1 !! inst15|synthesized_var_for_SYNTHESIZED_WIRE_24~feeder_combout $end
$var wire 1 "! inst15|synthesized_var_for_SYNTHESIZED_WIRE_24~q $end
$var wire 1 #! inst15|synthesized_var_for_JKFF_inst2~0_combout $end
$var wire 1 $! inst15|synthesized_var_for_JKFF_inst2~feeder_combout $end
$var wire 1 %! inst15|synthesized_var_for_JKFF_inst2~q $end
$var wire 1 &! inst16|SYNTHESIZED_WIRE_18~0_combout $end
$var wire 1 '! inst16|SYNTHESIZED_WIRE_30~0_combout $end
$var wire 1 (! inst16|SYNTHESIZED_WIRE_37~0_combout $end
$var wire 1 )! inst16|SYNTHESIZED_WIRE_38~0_combout $end
$var wire 1 *! inst16|SYNTHESIZED_WIRE_39~0_combout $end
$var wire 1 +! inst16|SYNTHESIZED_WIRE_40~0_combout $end
$var wire 1 ,! inst16|SYNTHESIZED_WIRE_41~0_combout $end
$upscope $end
$upscope $end
$enddefinitions $end
#0
$dumpvars
0!
0"
0#
0$
0%
0&
0'
0(
0)
0*
0+
0,
0-
0.
0/
00
01
02
03
14
15
16
x7
08
19
x:
1;
1<
1=
0>
0?
0@
0A
0B
0C
1D
0E
0F
0G
0H
0I
0J
1K
0L
0M
0N
0O
0P
0Q
1R
0S
1T
1U
0V
1W
0X
1Y
1Z
0[
1\
0]
0^
1_
1`
0a
0b
1c
0d
1e
1f
0g
1h
0i
1j
1k
1l
1m
1n
1o
0p
1q
1r
1s
1t
1u
1v
0w
1x
1y
1z
0{
0|
0}
1~
1!!
0"!
1#!
1$!
0%!
1&!
1'!
1(!
1)!
1*!
1+!
0,!
$end
#5000
1!
1S
07
#10000
0!
0S
17
1V
0v
0u
0t
0q
0T
0U
1J
1I
1H
1E
12
1/
1,
1#
#15000
1!
1S
07
#20000
0!
0S
17
0V
1v
1u
1t
1q
1T
1U
0J
0I
0H
0E
02
0/
0,
0#
1X
1w
0v
0s
0W
0K
1J
1G
05
12
1)
#25000
1!
1S
07
#30000
0!
0S
17
1V
0u
1s
0T
0U
1I
0G
1/
0)
#35000
1!
1S
07
#40000
0!
0S
17
0V
1u
0s
1T
1U
0I
1G
0/
1)
0X
0w
1v
1s
1W
1K
0J
0G
15
02
0)
1[
1w
0u
0t
0q
0Y
0Z
0K
1I
1H
1E
05
1/
1,
1#
#45000
1!
1S
07
#50000
0!
0S
17
1V
1t
0r
1q
0T
0U
0H
1F
0E
0,
1&
0#
#55000
1!
1S
07
#60000
0!
0S
17
0V
0t
1r
0q
1T
1U
1H
0F
1E
1,
0&
1#
1X
1u
1t
0r
1q
0W
0I
0H
1F
0E
0/
0,
1&
0#
#65000
1!
1S
07
#70000
0!
0S
17
1V
0w
0v
0u
0t
1r
0T
0U
1K
1J
1I
1H
0F
15
12
1/
1,
0&
#75000
1!
1S
07
#80000
0!
0S
17
0V
1w
1v
1u
1t
0r
1T
1U
0K
0J
0I
0H
1F
05
02
0/
0,
1&
0X
0u
0t
1r
0q
1W
1I
1H
0F
1E
1/
1,
0&
1#
0[
0w
1u
1t
1q
1Y
1Z
1K
0I
0H
0E
15
0/
0,
0#
1]
1w
0\
0K
05
#85000
1!
1S
07
#90000
0!
0S
17
1V
0u
0t
0T
0U
1I
1H
1/
1,
#95000
1!
1S
07
#100000
0!
0S
17
0V
1u
1t
1T
1U
0I
0H
0/
0,
1X
1^
0W
1b
0X
0]
0o
0n
0m
0k
0_
0w
0^
1W
1\
0`
1C
1B
1A
1?
1K
13
10
1-
1$
15
#105000
1!
1S
07
#110000
0!
0S
17
1V
0v
0u
0t
0q
0T
0U
1J
1I
1H
1E
12
1/
1,
1#
#115000
1!
1S
07
#120000
0!
0S
17
0V
1v
1u
1t
1q
1T
1U
0J
0I
0H
0E
02
0/
0,
0#
1X
1w
0v
0s
0W
0K
1J
1G
05
12
1)
#125000
1!
1S
07
#130000
0!
0S
17
1V
0u
1s
0T
0U
1I
0G
1/
0)
#135000
1!
1S
07
#140000
0!
0S
17
0V
1u
0s
1T
1U
0I
1G
0/
1)
0X
0w
1v
1s
1W
1K
0J
0G
15
02
0)
1[
1w
0u
0t
0q
0Y
0Z
0K
1I
1H
1E
05
1/
1,
1#
#145000
1!
1S
07
#150000
0!
0S
17
1V
1t
0r
1q
0T
0U
0H
1F
0E
0,
1&
0#
#155000
1!
1S
07
#160000
0!
0S
17
0V
0t
1r
0q
1T
1U
1H
0F
1E
1,
0&
1#
1X
1u
1t
0r
1q
0W
0I
0H
1F
0E
0/
0,
1&
0#
#165000
1!
1S
07
#170000
0!
0S
17
1V
0w
0v
0u
0t
1r
0T
0U
1K
1J
1I
1H
0F
15
12
1/
1,
0&
#175000
1!
1S
07
#180000
0!
0S
17
0V
1w
1v
1u
1t
0r
1T
1U
0K
0J
0I
0H
1F
05
02
0/
0,
1&
0X
0u
0t
1r
0q
1W
1I
1H
0F
1E
1/
1,
0&
1#
0[
0w
1u
1t
1q
1Y
1Z
1K
0I
0H
0E
15
0/
0,
0#
1]
1w
0\
0K
05
#185000
1!
1S
07
#190000
0!
0S
17
1V
0u
0t
0T
0U
1I
1H
1/
1,
#195000
1!
1S
07
#200000
0!
0S
17
0V
1u
1t
1T
1U
0I
0H
0/
0,
1X
1^
0W
0b
0X
0]
1o
1n
1m
1k
1_
0w
0^
1W
1\
1`
0C
0B
0A
0?
1K
03
00
0-
0$
15
1d
1p
0o
0j
0c
0D
1C
1>
06
13
1*
#205000
1!
1S
07
#210000
0!
0S
17
1V
0v
0u
0t
0q
0T
0U
1J
1I
1H
1E
12
1/
1,
1#
#215000
1!
1S
07
#220000
0!
0S
17
0V
1v
1u
1t
1q
1T
1U
0J
0I
0H
0E
02
0/
0,
0#
1X
1w
0v
0s
0W
0K
1J
1G
05
12
1)
#225000
1!
1S
07
#230000
0!
0S
17
1V
0u
1s
0T
0U
1I
0G
1/
0)
#235000
1!
1S
07
#240000
0!
0S
17
0V
1u
0s
1T
1U
0I
1G
0/
1)
0X
0w
1v
1s
1W
1K
0J
0G
15
02
0)
1[
1w
0u
0t
0q
0Y
0Z
0K
1I
1H
1E
05
1/
1,
1#
#245000
1!
1S
07
#250000
0!
0S
17
1V
1t
0r
1q
0T
0U
0H
1F
0E
0,
1&
0#
#255000
1!
1S
07
#260000
0!
0S
17
0V
0t
1r
0q
1T
1U
1H
0F
1E
1,
0&
1#
1X
1u
1t
0r
1q
0W
0I
0H
1F
0E
0/
0,
1&
0#
#265000
1!
1S
07
#270000
0!
0S
17
1V
0w
0v
0u
0t
1r
0T
0U
1K
1J
1I
1H
0F
15
12
1/
1,
0&
#275000
1!
1S
07
#280000
0!
0S
17
0V
1w
1v
1u
1t
0r
1T
1U
0K
0J
0I
0H
1F
05
02
0/
0,
1&
0X
0u
0t
1r
0q
1W
1I
1H
0F
1E
1/
1,
0&
1#
0[
0w
1u
1t
1q
1Y
1Z
1K
0I
0H
0E
15
0/
0,
0#
1]
1w
0\
0K
05
#285000
1!
1S
07
#290000
0!
0S
17
1V
0u
0t
0T
0U
1I
1H
1/
1,
#295000
1!
1S
07
#300000
0!
0S
17
0V
1u
1t
1T
1U
0I
0H
0/
0,
1X
1^
0W
1b
0X
0]
0n
1j
0_
0w
0^
1W
1\
0`
1B
0>
1K
10
0*
15
#305000
1!
1S
07
#310000
0!
0S
17
1V
0v
0u
0t
0q
0T
0U
1J
1I
1H
1E
12
1/
1,
1#
#315000
1!
1S
07
#320000
0!
0S
17
0V
1v
1u
1t
1q
1T
1U
0J
0I
0H
0E
02
0/
0,
0#
1X
1w
0v
0s
0W
0K
1J
1G
05
12
1)
#325000
1!
1S
07
#330000
0!
0S
17
1V
0u
1s
0T
0U
1I
0G
1/
0)
#335000
1!
1S
07
#340000
0!
0S
17
0V
1u
0s
1T
1U
0I
1G
0/
1)
0X
0w
1v
1s
1W
1K
0J
0G
15
02
0)
1[
1w
0u
0t
0q
0Y
0Z
0K
1I
1H
1E
05
1/
1,
1#
#345000
1!
1S
07
#350000
0!
0S
17
1V
1t
0r
1q
0T
0U
0H
1F
0E
0,
1&
0#
#355000
1!
1S
07
#360000
0!
0S
17
0V
0t
1r
0q
1T
1U
1H
0F
1E
1,
0&
1#
1X
1u
1t
0r
1q
0W
0I
0H
1F
0E
0/
0,
1&
0#
#365000
1!
1S
07
#370000
0!
0S
17
1V
0w
0v
0u
0t
1r
0T
0U
1K
1J
1I
1H
0F
15
12
1/
1,
0&
#375000
1!
1S
07
#380000
0!
0S
17
0V
1w
1v
1u
1t
0r
1T
1U
0K
0J
0I
0H
1F
05
02
0/
0,
1&
0X
0u
0t
1r
0q
1W
1I
1H
0F
1E
1/
1,
0&
1#
0[
0w
1u
1t
1q
1Y
1Z
1K
0I
0H
0E
15
0/
0,
0#
1]
1w
0\
0K
05
#385000
1!
1S
07
#390000
0!
0S
17
1V
0u
0t
0T
0U
1I
1H
1/
1,
#395000
1!
1S
07
#400000
0!
0S
17
0V
1u
1t
1T
1U
0I
0H
0/
0,
1X
1^
0W
0b
0X
0]
1n
0j
1_
0w
0^
1W
1\
1`
0B
1>
1K
00
1*
15
0d
0p
1o
1j
1c
1D
0C
0>
16
03
0*
1g
1p
0n
0m
0k
0e
0f
0D
1B
1A
1?
06
10
1-
1$
#405000
1!
1S
07
#410000
0!
0S
17
1V
0v
0u
0t
0q
0T
0U
1J
1I
1H
1E
12
1/
1,
1#
#415000
1!
1S
07
#420000
0!
0S
17
0V
1v
1u
1t
1q
1T
1U
0J
0I
0H
0E
02
0/
0,
0#
1X
1w
0v
0s
0W
0K
1J
1G
05
12
1)
#425000
1!
1S
07
#430000
0!
0S
17
1V
0u
1s
0T
0U
1I
0G
1/
0)
#435000
1!
1S
07
#440000
0!
0S
17
0V
1u
0s
1T
1U
0I
1G
0/
1)
0X
0w
1v
1s
1W
1K
0J
0G
15
02
0)
1[
1w
0u
0t
0q
0Y
0Z
0K
1I
1H
1E
05
1/
1,
1#
#445000
1!
1S
07
#450000
0!
0S
17
1V
1t
0r
1q
0T
0U
0H
1F
0E
0,
1&
0#
#455000
1!
1S
07
#460000
0!
0S
17
0V
0t
1r
0q
1T
1U
1H
0F
1E
1,
0&
1#
1X
1u
1t
0r
1q
0W
0I
0H
1F
0E
0/
0,
1&
0#
#465000
1!
1S
07
#470000
0!
0S
17
1V
0w
0v
0u
0t
1r
0T
0U
1K
1J
1I
1H
0F
15
12
1/
1,
0&
#475000
1!
1S
07
#480000
0!
0S
17
0V
1w
1v
1u
1t
0r
1T
1U
0K
0J
0I
0H
1F
05
02
0/
0,
1&
0X
0u
0t
1r
0q
1W
1I
1H
0F
1E
1/
1,
0&
1#
0[
0w
1u
1t
1q
1Y
1Z
1K
0I
0H
0E
15
0/
0,
0#
1]
1w
0\
0K
05
#485000
1!
1S
07
#490000
0!
0S
17
1V
0u
0t
0T
0U
1I
1H
1/
1,
#495000
1!
1S
07
#500000
0!
0S
17
0V
1u
1t
1T
1U
0I
0H
0/
0,
1X
1^
0W
1b
0X
0]
1m
0l
1k
0_
0w
0^
1W
1\
0`
0A
1@
0?
1K
0-
1'
0$
15
#505000
1!
1S
07
#510000
0!
0S
17
1V
0v
0u
0t
0q
0T
0U
1J
1I
1H
1E
12
1/
1,
1#
#515000
1!
1S
07
#520000
0!
0S
17
0V
1v
1u
1t
1q
1T
1U
0J
0I
0H
0E
02
0/
0,
0#
1X
1w
0v
0s
0W
0K
1J
1G
05
12
1)
#525000
1!
1S
07
#530000
0!
0S
17
1V
0u
1s
0T
0U
1I
0G
1/
0)
#535000
1!
1S
07
#540000
0!
0S
17
0V
1u
0s
1T
1U
0I
1G
0/
1)
0X
0w
1v
1s
1W
1K
0J
0G
15
02
0)
1[
1w
0u
0t
0q
0Y
0Z
0K
1I
1H
1E
05
1/
1,
1#
#545000
1!
1S
07
#550000
0!
0S
17
1V
1t
0r
1q
0T
0U
0H
1F
0E
0,
1&
0#
#555000
1!
1S
07
#560000
0!
0S
17
0V
0t
1r
0q
1T
1U
1H
0F
1E
1,
0&
1#
1X
1u
1t
0r
1q
0W
0I
0H
1F
0E
0/
0,
1&
0#
#565000
1!
1S
07
#570000
0!
0S
17
1V
0w
0v
0u
0t
1r
0T
0U
1K
1J
1I
1H
0F
15
12
1/
1,
0&
#575000
1!
1S
07
#580000
0!
0S
17
0V
1w
1v
1u
1t
0r
1T
1U
0K
0J
0I
0H
1F
05
02
0/
0,
1&
0X
0u
0t
1r
0q
1W
1I
1H
0F
1E
1/
1,
0&
1#
0[
0w
1u
1t
1q
1Y
1Z
1K
0I
0H
0E
15
0/
0,
0#
1]
1w
0\
0K
05
#585000
1!
1S
07
#590000
0!
0S
17
1V
0u
0t
0T
0U
1I
1H
1/
1,
#595000
1!
1S
07
#600000
0!
0S
17
0V
1u
1t
1T
1U
0I
0H
0/
0,
1X
1^
0W
0b
0X
0]
0m
1l
0k
1_
0w
0^
1W
1\
1`
1A
0@
1?
1K
1-
0'
1$
15
1d
1n
1m
0l
1k
0c
1a
0B
0A
1@
0?
00
0-
1'
0$
1}
0d
0g
0+!
0*!
0)!
0&!
0x
0p
1l
1c
0a
1e
0y
1f
1Q
1P
1O
1L
1D
0@
11
1.
1+
1"
16
0'
#605000
1!
1S
07
#610000
0!
0S
17
1V
0v
0u
0t
0q
0T
0U
1J
1I
1H
1E
12
1/
1,
1#
#615000
1!
1S
07
#620000
0!
0S
17
0V
1v
1u
1t
1q
1T
1U
0J
0I
0H
0E
02
0/
0,
0#
1X
1w
0v
0s
0W
0K
1J
1G
05
12
1)
#625000
1!
1S
07
#630000
0!
0S
17
1V
0u
1s
0T
0U
1I
0G
1/
0)
#635000
1!
1S
07
#640000
0!
0S
17
0V
1u
0s
1T
1U
0I
1G
0/
1)
0X
0w
1v
1s
1W
1K
0J
0G
15
02
0)
1[
1w
0u
0t
0q
0Y
0Z
0K
1I
1H
1E
05
1/
1,
1#
#645000
1!
1S
07
#650000
0!
0S
17
1V
1t
0r
1q
0T
0U
0H
1F
0E
0,
1&
0#
#655000
1!
1S
07
#660000
0!
0S
17
0V
0t
1r
0q
1T
1U
1H
0F
1E
1,
0&
1#
1X
1u
1t
0r
1q
0W
0I
0H
1F
0E
0/
0,
1&
0#
#665000
1!
1S
07
#670000
0!
0S
17
1V
0w
0v
0u
0t
1r
0T
0U
1K
1J
1I
1H
0F
15
12
1/
1,
0&
#675000
1!
1S
07
#680000
0!
0S
17
0V
1w
1v
1u
1t
0r
1T
1U
0K
0J
0I
0H
1F
05
02
0/
0,
1&
0X
0u
0t
1r
0q
1W
1I
1H
0F
1E
1/
1,
0&
1#
0[
0w
1u
1t
1q
1Y
1Z
1K
0I
0H
0E
15
0/
0,
0#
1]
1w
0\
0K
05
#685000
1!
1S
07
#690000
0!
0S
17
1V
0u
0t
0T
0U
1I
1H
1/
1,
#695000
1!
1S
07
#700000
0!
0S
17
0V
1u
1t
1T
1U
0I
0H
0/
0,
1X
1^
0W
1b
0X
0]
0o
0n
0m
0k
0_
0w
0^
1W
1\
0`
1C
1B
1A
1?
1K
13
10
1-
1$
15
#705000
1!
1S
07
#710000
0!
0S
17
1V
0v
0u
0t
0q
0T
0U
1J
1I
1H
1E
12
1/
1,
1#
#715000
1!
1S
07
#720000
0!
0S
17
0V
1v
1u
1t
1q
1T
1U
0J
0I
0H
0E
02
0/
0,
0#
1X
1w
0v
0s
0W
0K
1J
1G
05
12
1)
#725000
1!
1S
07
#730000
0!
0S
17
1V
0u
1s
0T
0U
1I
0G
1/
0)
#735000
1!
1S
07
#740000
0!
0S
17
0V
1u
0s
1T
1U
0I
1G
0/
1)
0X
0w
1v
1s
1W
1K
0J
0G
15
02
0)
1[
1w
0u
0t
0q
0Y
0Z
0K
1I
1H
1E
05
1/
1,
1#
#745000
1!
1S
07
#750000
0!
0S
17
1V
1t
0r
1q
0T
0U
0H
1F
0E
0,
1&
0#
#755000
1!
1S
07
#760000
0!
0S
17
0V
0t
1r
0q
1T
1U
1H
0F
1E
1,
0&
1#
1X
1u
1t
0r
1q
0W
0I
0H
1F
0E
0/
0,
1&
0#
#765000
1!
1S
07
#770000
0!
0S
17
1V
0w
0v
0u
0t
1r
0T
0U
1K
1J
1I
1H
0F
15
12
1/
1,
0&
#775000
1!
1S
07
#780000
0!
0S
17
0V
1w
1v
1u
1t
0r
1T
1U
0K
0J
0I
0H
1F
05
02
0/
0,
1&
0X
0u
0t
1r
0q
1W
1I
1H
0F
1E
1/
1,
0&
1#
0[
0w
1u
1t
1q
1Y
1Z
1K
0I
0H
0E
15
0/
0,
0#
1]
1w
0\
0K
05
#785000
1!
1S
07
#790000
0!
0S
17
1V
0u
0t
0T
0U
1I
1H
1/
1,
#795000
1!
1S
07
#800000
0!
0S
17
0V
1u
1t
1T
1U
0I
0H
0/
0,
1X
1^
0W
0b
0X
0]
1o
1n
1m
1k
1_
0w
0^
1W
1\
1`
0C
0B
0A
0?
1K
03
00
0-
0$
15
1d
1p
0o
0j
0c
0D
1C
1>
06
13
1*
#805000
1!
1S
07
#810000
0!
0S
17
1V
0v
0u
0t
0q
0T
0U
1J
1I
1H
1E
12
1/
1,
1#
#815000
1!
1S
07
#820000
0!
0S
17
0V
1v
1u
1t
1q
1T
1U
0J
0I
0H
0E
02
0/
0,
0#
1X
1w
0v
0s
0W
0K
1J
1G
05
12
1)
#825000
1!
1S
07
#830000
0!
0S
17
1V
0u
1s
0T
0U
1I
0G
1/
0)
#835000
1!
1S
07
#840000
0!
0S
17
0V
1u
0s
1T
1U
0I
1G
0/
1)
0X
0w
1v
1s
1W
1K
0J
0G
15
02
0)
1[
1w
0u
0t
0q
0Y
0Z
0K
1I
1H
1E
05
1/
1,
1#
#845000
1!
1S
07
#850000
0!
0S
17
1V
1t
0r
1q
0T
0U
0H
1F
0E
0,
1&
0#
#855000
1!
1S
07
#860000
0!
0S
17
0V
0t
1r
0q
1T
1U
1H
0F
1E
1,
0&
1#
1X
1u
1t
0r
1q
0W
0I
0H
1F
0E
0/
0,
1&
0#
#865000
1!
1S
07
#870000
0!
0S
17
1V
0w
0v
0u
0t
1r
0T
0U
1K
1J
1I
1H
0F
15
12
1/
1,
0&
#875000
1!
1S
07
#880000
0!
0S
17
0V
1w
1v
1u
1t
0r
1T
1U
0K
0J
0I
0H
1F
05
02
0/
0,
1&
0X
0u
0t
1r
0q
1W
1I
1H
0F
1E
1/
1,
0&
1#
0[
0w
1u
1t
1q
1Y
1Z
1K
0I
0H
0E
15
0/
0,
0#
1]
1w
0\
0K
05
#885000
1!
1S
07
#890000
0!
0S
17
1V
0u
0t
0T
0U
1I
1H
1/
1,
#895000
1!
1S
07
#900000
0!
0S
17
0V
1u
1t
1T
1U
0I
0H
0/
0,
1X
1^
0W
1b
0X
0]
0n
1j
0_
0w
0^
1W
1\
0`
1B
0>
1K
10
0*
15
#905000
1!
1S
07
#910000
0!
0S
17
1V
0v
0u
0t
0q
0T
0U
1J
1I
1H
1E
12
1/
1,
1#
#915000
1!
1S
07
#920000
0!
0S
17
0V
1v
1u
1t
1q
1T
1U
0J
0I
0H
0E
02
0/
0,
0#
1X
1w
0v
0s
0W
0K
1J
1G
05
12
1)
#925000
1!
1S
07
#930000
0!
0S
17
1V
0u
1s
0T
0U
1I
0G
1/
0)
#935000
1!
1S
07
#940000
0!
0S
17
0V
1u
0s
1T
1U
0I
1G
0/
1)
0X
0w
1v
1s
1W
1K
0J
0G
15
02
0)
1[
1w
0u
0t
0q
0Y
0Z
0K
1I
1H
1E
05
1/
1,
1#
#945000
1!
1S
07
#950000
0!
0S
17
1V
1t
0r
1q
0T
0U
0H
1F
0E
0,
1&
0#
#955000
1!
1S
07
#960000
0!
0S
17
0V
0t
1r
0q
1T
1U
1H
0F
1E
1,
0&
1#
1X
1u
1t
0r
1q
0W
0I
0H
1F
0E
0/
0,
1&
0#
#965000
1!
1S
07
#970000
0!
0S
17
1V
0w
0v
0u
0t
1r
0T
0U
1K
1J
1I
1H
0F
15
12
1/
1,
0&
#975000
1!
1S
07
#980000
0!
0S
17
0V
1w
1v
1u
1t
0r
1T
1U
0K
0J
0I
0H
1F
05
02
0/
0,
1&
0X
0u
0t
1r
0q
1W
1I
1H
0F
1E
1/
1,
0&
1#
0[
0w
1u
1t
1q
1Y
1Z
1K
0I
0H
0E
15
0/
0,
0#
1]
1w
0\
0K
05
#985000
1!
1S
07
#990000
0!
0S
17
1V
0u
0t
0T
0U
1I
1H
1/
1,
#995000
1!
1S
07
